[
  {
    "playbook_id": "c1843b90-8208-41b0-b3cc-c8417a2004ff",
    "plays": [
      {
        "play_id": "595d7090-4d36-44c4-9f8c-540697b524ff",
        "play_args": {
          "name": null,
          "hosts": null
        },
        "spotter_metadata": {
          "file": "/home/user/Desktop/examples/playbook.yml",
          "line": 2,
          "column": 3,
          "start_mark_index": 6,
          "end_mark_index": 404
        },
        "spotter_obfuscated": []
      }
    ]
  }
]
