{
  "uuid": "VzhZjnCQT5SaGfd6EQG_Gg",
  "user": "fgoIxzOKSHWvZZpW6LxDew",
  "user_info": {
    "first_name": "John",
    "last_name": "Doe",
    "email": "john.doe@example.com",
    "username": "john_doe"
  },
  "project": "tpMQ37z4TnC5SCfS9nctcQ",
  "organization": "mqeMgx44ne2cPCK9GiVx",
  "environment": {
    "id": "2EZm_C9dQWiE-sl7anzXPA"
  },
  "scan_date": "2023-07-18T07:05:03.964868Z",
  "subscription": "kwjW9FgJRy6qVWvGOnJo3g",
  "is_paid": true,
  "web_urls": {
    "organization_url": "https://spotter.xlab.si/organization/org_url/",
    "project_url": "https://spotter.xlab.si/organization/organization_url/projects/proj_url/",
    "scan_url": "https://spotter.xlab.si/organization/org_url/projects/proj_url/scans/scan_url/"
  },
  "summary": {
    "scan_time": 0.2980048656463623,
    "num_errors": 1,
    "num_warnings": 1,
    "num_hints": 2,
    "status": "error"
  },
  "scan_progress": {
    "progress_status": "success",
    "current": 10,
    "total": 10
  },
  "check_results": [
    {
      "task_id": "4a74782b-5224-4c7d-85ff-372827e3f640",
      "file": "/home/user/Desktop/examples/playbook.yml",
      "line": 5,
      "column": 7,
      "check_class": "CheckParameters",
      "event_code": "E005",
      "event_value": "required-parameter-missing",
      "event_message": "Required parameter was not set in this module.",
      "event_subcode": null,
      "event_submessage": null,
      "level": "ERROR",
      "message": "'name' is a required parameter in module 'sensu.sensu_go.user'.",
      "suggestion": {},
      "doc_url": "https://docs.steampunk.si/plugins/sensu/sensu_go/1.13.2/module/user.html",
      "correlation_id": "4a74782b-5224-4c7d-85ff-372827e3f640",
      "check_type": "TASK"
    },
    {
      "task_id": "4a74782b-5224-4c7d-85ff-372827e3f640",
      "file": "/home/user/Desktop/examples/playbook.yml",
      "line": 5,
      "column": 7,
      "check_class": "CheckCollectionRequirements",
      "event_code": "H1900",
      "event_value": "requirements-collection-missing",
      "event_message": "Required collection is missing from requirements.yml.",
      "event_subcode": null,
      "event_submessage": null,
      "level": "HINT",
      "message": "Required collection 'sensu.sensu_go' is missing from requirements.yml or requirements.yml is missing.",
      "suggestion": {
        "start_mark": 62,
        "end_mark": 190,
        "suggestion": {
          "data": {
            "version": "1.13.2",
            "collection_name": "sensu.sensu_go"
          },
          "action": "FIX_REQUIREMENTS"
        }
      },
      "doc_url": null,
      "correlation_id": "4a74782b-5224-4c7d-85ff-372827e3f640",
      "check_type": "TASK"
    },
    {
      "task_id": "6603c3b9-d038-4d0d-b5eb-f8eb37c0c093",
      "file": "/home/user/Desktop/examples/playbook.yml",
      "line": 9,
      "column": 7,
      "check_class": "CheckParameters",
      "event_code": "W003",
      "event_value": "deprecated-parameter-with-alternative",
      "event_message": "Use of this parameter is deprecated. Use new alternative parameter.",
      "event_subcode": null,
      "event_submessage": null,
      "level": "WARNING",
      "message": "Use of parameter 'user' is deprecated in module 'ansible.builtin.uri'. Parameter 'url_username' is a new alternative.",
      "suggestion": {},
      "doc_url": null,
      "correlation_id": "6603c3b9-d038-4d0d-b5eb-f8eb37c0c093",
      "check_type": "TASK"
    },
    {
      "task_id": "95143e70-0d9c-45a1-b8b0-8c03f5e54826",
      "file": "/home/user/Desktop/examples/playbook.yml",
      "line": 15,
      "column": 7,
      "check_class": "CheckDebug",
      "event_code": "H500",
      "event_value": "debug-module-in-production",
      "event_message": "Use of module 'debug' is discouraged in production.",
      "event_subcode": null,
      "event_submessage": null,
      "level": "HINT",
      "message": "Use of module 'debug' is discouraged in production.",
      "suggestion": {},
      "doc_url": null,
      "correlation_id": "95143e70-0d9c-45a1-b8b0-8c03f5e54826",
      "check_type": "TASK"
    }
  ]
}
