{
  "environment": {
    "python_version": "ANY",
    "ansible_version": {
      "ansible_core": null,
      "ansible_base": null,
      "ansible": null
    },
    "installed_collections": [],
    "ansible_config": {},
    "galaxy_yml": {},
    "collection_requirements": {},
    "cli_scan_args": {
      "parse_values": true,
      "include_values": true,
      "include_metadata": true,
      "rewrite": false,
      "display_level": "hint",
      "profile": "default",
      "skip_checks": [],
      "enforce_checks": [],
      "version": "ANY",
      "origin": "cli"
    }
  },
  "tasks": [
    {
      "task_id": "ANY",
      "play_id": "ANY",
      "task_args": {
        "name": "This is a placeholder debug",
        "ansible.builtin.debug": {
          "msg": "Hello from role/handlers/main.yml"
        }
      },
      "spotter_metadata": {
        "file": "ANY",
        "line": 2,
        "column": 3,
        "start_mark_index": 6,
        "end_mark_index": 108
      },
      "spotter_obfuscated": [],
      "spotter_noqa": []
    },
    {
      "task_id": "ANY",
      "play_id": "ANY",
      "task_args": {
        "name": "This is a placeholder debug",
        "ansible.builtin.debug": {
          "msg": "Hello from role/tasks/folder1/test.yml"
        }
      },
      "spotter_metadata": {
        "file": "ANY",
        "line": 2,
        "column": 3,
        "start_mark_index": 6,
        "end_mark_index": 113
      },
      "spotter_obfuscated": [],
      "spotter_noqa": []
    },
    {
      "task_id": "ANY",
      "play_id": "ANY",
      "task_args": {
        "name": "This is a placeholder debug",
        "ansible.builtin.debug": {
          "msg": "Hello from role/tasks/folder2/test1.yml"
        }
      },
      "spotter_metadata": {
        "file": "ANY",
        "line": 2,
        "column": 3,
        "start_mark_index": 6,
        "end_mark_index": 114
      },
      "spotter_obfuscated": [],
      "spotter_noqa": []
    },
    {
      "task_id": "ANY",
      "play_id": "ANY",
      "task_args": {
        "name": "This is a placeholder debug",
        "ansible.builtin.debug": {
          "msg": "Hello from role/tasks/folder2/test2.yml"
        }
      },
      "spotter_metadata": {
        "file": "ANY",
        "line": 2,
        "column": 3,
        "start_mark_index": 6,
        "end_mark_index": 114
      },
      "spotter_obfuscated": [],
      "spotter_noqa": []
    },
    {
      "task_id": "ANY",
      "play_id": "ANY",
      "task_args": {
        "name": "This is a placeholder debug",
        "ansible.builtin.debug": {
          "msg": "Hello from role/tasks/folder3/subfolder1/subsubfolder1/test.yml"
        }
      },
      "spotter_metadata": {
        "file": "ANY",
        "line": 2,
        "column": 3,
        "start_mark_index": 6,
        "end_mark_index": 138
      },
      "spotter_obfuscated": [],
      "spotter_noqa": []
    },
    {
      "task_id": "ANY",
      "play_id": "ANY",
      "task_args": {
        "name": "This is a placeholder debug",
        "ansible.builtin.debug": {
          "msg": "Hello from role/tasks/folder3/subfolder1/test1.yml"
        }
      },
      "spotter_metadata": {
        "file": "ANY",
        "line": 2,
        "column": 3,
        "start_mark_index": 6,
        "end_mark_index": 125
      },
      "spotter_obfuscated": [],
      "spotter_noqa": []
    },
    {
      "task_id": "ANY",
      "play_id": "ANY",
      "task_args": {
        "name": "This is a placeholder debug",
        "ansible.builtin.debug": {
          "msg": "Hello from role/tasks/folder3/subfolder1/test2.yml"
        }
      },
      "spotter_metadata": {
        "file": "ANY",
        "line": 2,
        "column": 3,
        "start_mark_index": 6,
        "end_mark_index": 125
      },
      "spotter_obfuscated": [],
      "spotter_noqa": []
    },
    {
      "task_id": "ANY",
      "play_id": "ANY",
      "task_args": {
        "name": "This is a placeholder debug",
        "ansible.builtin.debug": {
          "msg": "Hello from role/tasks/folder3/subfolder2/test.yml"
        }
      },
      "spotter_metadata": {
        "file": "ANY",
        "line": 2,
        "column": 3,
        "start_mark_index": 6,
        "end_mark_index": 124
      },
      "spotter_obfuscated": [],
      "spotter_noqa": []
    },
    {
      "task_id": "ANY",
      "play_id": "ANY",
      "task_args": {
        "name": "This is a placeholder debug",
        "ansible.builtin.debug": {
          "msg": "Hello from role/tasks/folder3/test.yml"
        }
      },
      "spotter_metadata": {
        "file": "ANY",
        "line": 2,
        "column": 3,
        "start_mark_index": 6,
        "end_mark_index": 113
      },
      "spotter_obfuscated": [],
      "spotter_noqa": []
    },
    {
      "task_id": "ANY",
      "play_id": "ANY",
      "task_args": {
        "name": "This is a placeholder debug",
        "ansible.builtin.debug": {
          "msg": "Hello from role/tasks/main.yml"
        }
      },
      "spotter_metadata": {
        "file": "ANY",
        "line": 2,
        "column": 3,
        "start_mark_index": 6,
        "end_mark_index": 105
      },
      "spotter_obfuscated": [],
      "spotter_noqa": []
    },
    {
      "task_id": "ANY",
      "play_id": "ANY",
      "task_args": {
        "name": "This is a placeholder debug",
        "ansible.builtin.debug": {
          "msg": "Hello from role/tasks/test.yml"
        }
      },
      "spotter_metadata": {
        "file": "ANY",
        "line": 2,
        "column": 3,
        "start_mark_index": 6,
        "end_mark_index": 105
      },
      "spotter_obfuscated": [],
      "spotter_noqa": []
    },
    {
      "task_id": "ANY",
      "play_id": "ANY",
      "task_args": {
        "name": "Create a new Sensu Go user",
        "sensu.sensu_go.user": {
          "password": "{{ lookup('env', 'SENSU_USER_PASSWORD') }}"
        }
      },
      "spotter_metadata": {
        "file": "ANY",
        "line": 5,
        "column": 7,
        "start_mark_index": 62,
        "end_mark_index": 190
      },
      "spotter_obfuscated": [],
      "spotter_noqa": []
    },
    {
      "task_id": "ANY",
      "play_id": "ANY",
      "task_args": {
        "name": "Get the payload from the API",
        "ansible.builtin.uri": {
          "url": "/some-url",
          "method": "GET",
          "user": "username1"
        }
      },
      "spotter_metadata": {
        "file": "ANY",
        "line": 9,
        "column": 7,
        "start_mark_index": 192,
        "end_mark_index": 330
      },
      "spotter_obfuscated": [],
      "spotter_noqa": []
    },
    {
      "task_id": "ANY",
      "play_id": "ANY",
      "task_args": {
        "name": "Print a message",
        "ansible.builtin.debug": {
          "msg": "block"
        }
      },
      "spotter_metadata": {
        "file": "ANY",
        "line": 15,
        "column": 7,
        "start_mark_index": 332,
        "end_mark_index": 404
      },
      "spotter_obfuscated": [],
      "spotter_noqa": []
    },
    {
      "task_id": "ANY",
      "play_id": "ANY",
      "task_args": {
        "name": "This is a placeholder debug",
        "ansible.builtin.debug": {
          "msg": "Hello from role/handlers/main.yml"
        }
      },
      "spotter_metadata": {
        "file": "ANY",
        "line": 2,
        "column": 3,
        "start_mark_index": 6,
        "end_mark_index": 108
      },
      "spotter_obfuscated": [],
      "spotter_noqa": []
    },
    {
      "task_id": "ANY",
      "play_id": "ANY",
      "task_args": {
        "name": "This is a placeholder debug",
        "ansible.builtin.debug": {
          "msg": "Hello from role/tasks/folder1/test.yml"
        }
      },
      "spotter_metadata": {
        "file": "ANY",
        "line": 2,
        "column": 3,
        "start_mark_index": 6,
        "end_mark_index": 113
      },
      "spotter_obfuscated": [],
      "spotter_noqa": []
    },
    {
      "task_id": "ANY",
      "play_id": "ANY",
      "task_args": {
        "name": "This is a placeholder debug",
        "ansible.builtin.debug": {
          "msg": "Hello from role/tasks/folder2/test1.yml"
        }
      },
      "spotter_metadata": {
        "file": "ANY",
        "line": 2,
        "column": 3,
        "start_mark_index": 6,
        "end_mark_index": 114
      },
      "spotter_obfuscated": [],
      "spotter_noqa": []
    },
    {
      "task_id": "ANY",
      "play_id": "ANY",
      "task_args": {
        "name": "This is a placeholder debug",
        "ansible.builtin.debug": {
          "msg": "Hello from role/tasks/folder2/test2.yml"
        }
      },
      "spotter_metadata": {
        "file": "ANY",
        "line": 2,
        "column": 3,
        "start_mark_index": 6,
        "end_mark_index": 114
      },
      "spotter_obfuscated": [],
      "spotter_noqa": []
    },
    {
      "task_id": "ANY",
      "play_id": "ANY",
      "task_args": {
        "name": "This is a placeholder debug",
        "ansible.builtin.debug": {
          "msg": "Hello from role/tasks/folder3/subfolder1/subsubfolder1/test.yml"
        }
      },
      "spotter_metadata": {
        "file": "ANY",
        "line": 2,
        "column": 3,
        "start_mark_index": 6,
        "end_mark_index": 138
      },
      "spotter_obfuscated": [],
      "spotter_noqa": []
    },
    {
      "task_id": "ANY",
      "play_id": "ANY",
      "task_args": {
        "name": "This is a placeholder debug",
        "ansible.builtin.debug": {
          "msg": "Hello from role/tasks/folder3/subfolder1/test1.yml"
        }
      },
      "spotter_metadata": {
        "file": "ANY",
        "line": 2,
        "column": 3,
        "start_mark_index": 6,
        "end_mark_index": 125
      },
      "spotter_obfuscated": [],
      "spotter_noqa": []
    },
    {
      "task_id": "ANY",
      "play_id": "ANY",
      "task_args": {
        "name": "This is a placeholder debug",
        "ansible.builtin.debug": {
          "msg": "Hello from role/tasks/folder3/subfolder1/test2.yml"
        }
      },
      "spotter_metadata": {
        "file": "ANY",
        "line": 2,
        "column": 3,
        "start_mark_index": 6,
        "end_mark_index": 125
      },
      "spotter_obfuscated": [],
      "spotter_noqa": []
    },
    {
      "task_id": "ANY",
      "play_id": "ANY",
      "task_args": {
        "name": "This is a placeholder debug",
        "ansible.builtin.debug": {
          "msg": "Hello from role/tasks/folder3/subfolder2/test.yml"
        }
      },
      "spotter_metadata": {
        "file": "ANY",
        "line": 2,
        "column": 3,
        "start_mark_index": 6,
        "end_mark_index": 124
      },
      "spotter_obfuscated": [],
      "spotter_noqa": []
    },
    {
      "task_id": "ANY",
      "play_id": "ANY",
      "task_args": {
        "name": "This is a placeholder debug",
        "ansible.builtin.debug": {
          "msg": "Hello from role/tasks/folder3/test.yml"
        }
      },
      "spotter_metadata": {
        "file": "ANY",
        "line": 2,
        "column": 3,
        "start_mark_index": 6,
        "end_mark_index": 113
      },
      "spotter_obfuscated": [],
      "spotter_noqa": []
    },
    {
      "task_id": "ANY",
      "play_id": "ANY",
      "task_args": {
        "name": "This is a placeholder debug",
        "ansible.builtin.debug": {
          "msg": "Hello from role/tasks/main.yml"
        }
      },
      "spotter_metadata": {
        "file": "ANY",
        "line": 2,
        "column": 3,
        "start_mark_index": 6,
        "end_mark_index": 105
      },
      "spotter_obfuscated": [],
      "spotter_noqa": []
    },
    {
      "task_id": "ANY",
      "play_id": "ANY",
      "task_args": {
        "name": "This is a placeholder debug",
        "ansible.builtin.debug": {
          "msg": "Hello from role/tasks/test.yml"
        }
      },
      "spotter_metadata": {
        "file": "ANY",
        "line": 2,
        "column": 3,
        "start_mark_index": 6,
        "end_mark_index": 105
      },
      "spotter_obfuscated": [],
      "spotter_noqa": []
    },
    {
      "task_id": "ANY",
      "play_id": "ANY",
      "task_args": {
        "name": "Create a new Sensu Go user",
        "sensu.sensu_go.user": {
          "password": "{{ lookup('env', 'SENSU_USER_PASSWORD') }}"
        }
      },
      "spotter_metadata": {
        "file": "ANY",
        "line": 5,
        "column": 7,
        "start_mark_index": 62,
        "end_mark_index": 190
      },
      "spotter_obfuscated": [],
      "spotter_noqa": []
    },
    {
      "task_id": "ANY",
      "play_id": "ANY",
      "task_args": {
        "name": "Get the payload from the API",
        "ansible.builtin.uri": {
          "url": "/some-url",
          "method": "GET",
          "user": "username1"
        }
      },
      "spotter_metadata": {
        "file": "ANY",
        "line": 9,
        "column": 7,
        "start_mark_index": 192,
        "end_mark_index": 330
      },
      "spotter_obfuscated": [],
      "spotter_noqa": []
    },
    {
      "task_id": "ANY",
      "play_id": "ANY",
      "task_args": {
        "name": "Print a message",
        "ansible.builtin.debug": {
          "msg": "block"
        }
      },
      "spotter_metadata": {
        "file": "ANY",
        "line": 15,
        "column": 7,
        "start_mark_index": 332,
        "end_mark_index": 404
      },
      "spotter_obfuscated": [],
      "spotter_noqa": []
    },
    {
      "task_id": "ANY",
      "play_id": "ANY",
      "task_args": {
        "name": "This is a placeholder debug",
        "ansible.builtin.debug": {
          "msg": "Hello from task.yml"
        }
      },
      "spotter_metadata": {
        "file": "ANY",
        "line": 2,
        "column": 3,
        "start_mark_index": 6,
        "end_mark_index": 94
      },
      "spotter_obfuscated": [],
      "spotter_noqa": []
    }
  ],
  "playbooks": [
    {
      "playbook_id": "ANY",
      "plays": [
        {
          "play_id": "ANY",
          "play_args": {
            "name": "Sample playbook",
            "hosts": "localhost"
          },
          "spotter_metadata": "ANY",
          "spotter_obfuscated": []
        }
      ]
    },
    {
      "playbook_id": "ANY",
      "plays": [
        {
          "play_id": "ANY",
          "play_args": {
            "name": "Sample playbook",
            "hosts": "localhost"
          },
          "spotter_metadata": "ANY",
          "spotter_obfuscated": []
        }
      ]
    }
  ]
}
